…
```r
rice_data <- read_excel("Spray-Data-06.18.20.xlsx", 
                        col_types = c("text", "numeric", "numeric",
                                      "numeric", "numeric","numeric"))
rice_data
```

```
## # A tibble: 320 x 6
##    Genotype   Rep `Mock_30C-22C` `Mock_30C-28C` `Pathogen_30C-2…
##    <chr>    <dbl>          <dbl>          <dbl>            <dbl>
##  1 310111       1           5.88           18.6             86.5
##  2 310111       2           2.48           79.7             82.6
##  3 310111       3           2.9            61.7            100  
##  4 310111       4           0              67.2             86.1
##  5 310111       5           1.76           75.4             98.6
##  6 310111       6           0              76.6             93.8
##  7 310111       7          NA              NA               85.7
##  8 310111       8          NA              NA              100  
##  9 310111       9          NA              NA              100  
## 10 310111      10          NA              NA              100  
## # … with 310 more rows, and 1 more variable: `Pathogen_30C-28C` <dbl>
```
…
